s/ア/あ/g
s/イ/い/g
s/ウ/う/g
s/エ/え/g
s/オ/お/g
s/カ/か/g
s/キ/き/g
s/ク/く/g
s/ケ/け/g
s/コ/こ/g
s/ガ/が/g
s/ギ/ぎ/g
s/グ/ぐ/g
s/ゲ/げ/g
s/ゴ/ご/g
s/サ/さ/g
s/シ/し/g
s/ス/す/g
s/セ/せ/g
s/ソ/そ/g
s/ザ/ざ/g
s/ジ/じ/g
s/ズ/ず/g
s/ゼ/ぜ/g
s/ゾ/ぞ/g
s/タ/た/g
s/チ/ち/g
s/ツ/つ/g
s/ッ/っ/g
s/テ/て/g
s/ト/と/g
s/ダ/だ/g
s/ヂ/ぢ/g
s/ヅ/づ/g
s/デ/で/g
s/ド/ど/g
s/ナ/な/g
s/ニ/に/g
s/ヌ/ぬ/g
s/ネ/ね/g
s/ノ/の/g
s/ハ/は/g
s/ヒ/ひ/g
s/フ/ふ/g
s/ヘ/へ/g
s/ホ/ほ/g
s/バ/ば/g
s/ビ/び/g
s/ブ/ぶ/g
s/ベ/べ/g
s/ボ/ぼ/g
s/パ/ぱ/g
s/ピ/ぴ/g
s/プ/ぷ/g
s/ペ/ぺ/g
s/ポ/ぽ/g
s/マ/ま/g
s/ミ/み/g
s/ム/む/g
s/メ/め/g
s/モ/も/g
s/ヤ/や/g
s/ユ/ゆ/g
s/ヨ/よ/g
s/ャ/ゃ/g
s/ュ/ゅ/g
s/ョ/ょ/g
s/ラ/ら/g
s/リ/り/g
s/ル/る/g
s/レ/れ/g
s/ロ/ろ/g
s/ワ/わ/g
s/ヲ/を/g
s/ン/ん/g

