1,晏嬰,アンエイ,アン,晏,D_春秋時代
2,韋誕,イタン,イ,韋,2_三国後半
3,殷允,インイン,イン,殷,7_桓温世代
4,尹吉甫,インキツホ,イン,尹,C_西周時代
5,殷覬,インギ,イン,殷,9_東晋末期
6,殷顗,インギ,イン,殷,9_東晋末期
7,殷浩,インコウ,イン,殷,6_庾亮世代
8,殷高宗【武丁】,インコウソウブテイ,イン,殷,B_殷商時代
9,殷師,インシ,イン,殷,7_桓温世代
10,殷氏（韓伯）,インシ,イン,殷,7_桓温世代
11,殷羨,インセン,イン,殷,5_王導世代
12,殷紂王,インチュウオウ,イン,殷,C_西周時代
13,殷仲堪,インチュウカン,イン,殷,9_東晋末期
14,殷仲文,インチュウブン,イン,殷,9_東晋末期
15,殷湯王【子履】,イントウオウシリ,イン,殷,B_殷商時代
16,殷融,インユウ,イン,殷,5_王導世代
17,禹【姒文命】,ウジブンメイ,ウ,禹,A_伝説時代
18,于法開,ウホウカイ,ウ,于,7_桓温世代
19,慧遠,エオン,エ,慧,8_淝水世代
20,衛永,エイエイ,エイ,衛,6_庾亮世代
21,衛玠,エイカイ,エイ,衛,5_王導世代
22,衛瓘,エイカン,エイ,衛,3_西晋前半
23,郢人,エイジン,エイ,郢,C_西周時代
24,衛展,エイテン,エイ,衛,6_庾亮世代
25,袁悦,エンエツ,エン,袁,9_東晋末期
26,袁恪之,エンカクシ,エン,袁,8_淝水世代
27,袁熙,エンキ,エン,袁,1_三国前半
28,袁喬,エンキョウ,エン,袁,7_桓温世代
29,袁宏,エンコウ,エン,袁,7_桓温世代
30,袁山松,エンサンショウ,エン,袁,8_淝水世代
31,袁紹,エンショウ,エン,袁,1_三国前半
32,袁準,エンジュン,エン,袁,2_三国後半
33,袁耽,エンタン,エン,袁,7_桓温世代
34,袁湯,エントウ,エン,袁,I_後漢時代
35,袁豹,エンヒョウ,エン,袁,9_東晋末期
36,袁閎,エンロウ,エン,袁,I_後漢時代
37,袁閬,エンロウ,エン,袁,I_後漢時代
38,王堪,オウカン,オウ,王,1_三国前半
39,王雅,オウガ,オウ,王,7_桓温世代
40,王愷,オウガイ,オウ,王,4_西晋後半
41,王経,オウケイ,オウ,王,2_三国後半
42,王粲,オウサン,オウ,王,1_三国前半
43,王氏（謝拠）,オウシ,オウ,王,8_淝水世代
44,王粛之,オウシュクシ,オウ,王,8_淝水世代
45,王檣【王昭君】,オウショウ,オウ,王,G_前漢時代
46,王処之,オウショシ,オウ,王,8_淝水世代
47,應詹,オウセン,オウ,應,5_王導世代
48,王尊,オウソン,オウ,王,I_後漢時代
49,王禎之,オウテイシ,オウ,王,9_東晋末期
50,王弼,オウヒツ,オウ,王,3_西晋前半
51,王陽,オウヨウ,オウ,王,I_後漢時代
52,王陵,オウリョウ,オウ,王,I_後漢時代
53,王烈,オウレツ,オウ,王,I_後漢時代
54,王朗,オウロウ,オウ,王,1_三国前半
55,王穎,オウエイ,オウ1,王,5_王導世代
56,王英彦,オウエイゲン,オウ1,王,8_淝水世代
57,王悦,オウエツ,オウ1,王,6_庾亮世代
58,王衍,オウエン,オウ1,王,4_西晋後半
59,王応,オウオウ,オウ1,王,5_王導世代
60,王薈,オウカイ,オウ1,王,7_桓温世代
61,王乂,オウガイ,オウ1,王,3_西晋前半
62,王含,オウガン,オウ1,王,5_王導世代
63,王徽,オウキ,オウ1,王,5_王導世代
64,王徽之,オウキシ,オウ1,王,7_桓温世代
65,王耆之,オウキシ,オウ1,王,6_庾亮世代
66,王廞,オウキン,オウ1,王,9_東晋末期
67,王羲之,オウギシ,オウ1,王,6_庾亮世代
68,王凝之,オウギョウシ,オウ1,王,8_淝水世代
69,王詡,オウク,オウ1,王,4_西晋後半
70,王恵,オウケイ,オウ1,王,9_東晋末期
71,王献之,オウケンシ,オウ1,王,8_淝水世代
72,王玄,オウゲン,オウ1,王,4_西晋後半
73,王洽,オウコウ,オウ1,王,7_桓温世代
74,王胡之,オウコシ,オウ1,王,6_庾亮世代
75,王混,オウコン,オウ1,王,8_淝水世代
76,王渾（琅邪）,オウコン,オウ1,王,3_西晋前半
77,王氏(裴頠）,オウシ,オウ1,王,4_西晋後半
78,王珣,オウシュン,オウ1,王,8_淝水世代
79,王劭,オウショウ,オウ1,王,6_庾亮世代
80,王敞,オウショウ,オウ1,王,5_王導世代
81,王祥,オウショウ,オウ1,王,1_三国前半
82,王戎,オウジュウ,オウ1,王,3_西晋前半
83,王舒,オウジョ,オウ1,王,4_西晋後半
84,王女宗,オウジョソウ,オウ1,王,8_淝水世代
85,王綏（謝拠夫人）,オウスイ,オウ1,王,7_桓温世代
86,王邃,オウスイ,オウ1,王,4_西晋後半
87,王操之,オウソウシ,オウ1,王,8_淝水世代
88,王僧首,オウソウシュ,オウ1,王,9_東晋末期
89,王澄,オウチョウ,オウ1,王,3_西晋前半
90,王恬,オウテン,オウ1,王,6_庾亮世代
91,王訥之,オウトツシ,オウ1,王,8_淝水世代
92,王敦,オウトン,オウ1,王,4_西晋後半
93,王導,オウドウ,オウ1,王,5_王導世代
94,王萬子,オウバンシ,オウ1,王,4_西晋後半
95,王謐,オウヒツ,オウ1,王,9_東晋末期
96,王彪之,オウヒョウシ,オウ1,王,6_庾亮世代
97,王彬,オウヒン,オウ1,王,5_王導世代
98,王彭之,オウホウシ,オウ1,王,5_王導世代
99,王珉,オウミン,オウ1,王,8_淝水世代
100,王廙,オウヨク,オウ1,王,5_王導世代
101,王臨之,オウリンシ,オウ1,王,8_淝水世代
102,王和之,オウワシ,オウ1,王,8_淝水世代
103,王褘之,オウイシ,オウ2,王,7_桓温世代
104,王蘊,オウウン,オウ2,王,7_桓温世代
105,王熙,オウキ,オウ2,王,9_東晋末期
106,王恭,オウキョウ,オウ2,王,9_東晋末期
107,王広,オウコウ,オウ2,王,2_三国後半
108,王国宝,オウコクホウ,オウ2,王,9_東晋末期
109,王渾（太原）,オウコン,オウ2,王,3_西晋前半
110,王済,オウサイ,オウ2,王,4_西晋後半
111,王脩（太原）,オウシュウ,オウ2,王,8_淝水世代
112,王緒,オウショ,オウ2,王,9_東晋末期
113,王承,オウショウ,オウ2,王,5_王導世代
114,王忱,オウシン,オウ2,王,9_東晋末期
115,王述,オウジュツ,オウ2,王,6_庾亮世代
116,王綏,オウスイ,オウ2,王,9_東晋末期
117,王爽,オウソウ,オウ2,王,9_東晋末期
118,王湛,オウタン,オウ2,王,4_西晋後半
119,王坦之,オウタンシ,オウ2,王,7_桓温世代
120,王昶,オウチョウ,オウ2,王,3_西晋前半
121,王訥,オウトツ,オウ2,王,5_王導世代
122,王法恵,オウホウケイ,オウ2,王,9_東晋末期
123,王穆之,オウボクシ,オウ2,王,8_淝水世代
124,王濛,オウモウ,オウ2,王,6_庾亮世代
125,王愉,オウユ,オウ2,王,9_東晋末期
126,王凌,オウリョウ,オウ2,王,1_三国前半
127,歐陽建,オウヨウケン,オウヨウ,歐陽,4_西晋後半
128,温幾,オンキ,オン,温,4_西晋後半
129,温嶠,オンキョウ,オン,温,6_庾亮世代
130,温顒,オンギョク,オン,温,3_西晋前半
131,何晏,カアン,カ,何,1_三国前半
132,華軼,カイツ,カ,華,4_西晋後半
133,賈午,カゴ,カ,賈,4_西晋後半
134,何充,カジュウ,カ,何,6_庾亮世代
135,賈充,カジュウ,カ,賈,2_三国後半
136,何準,カジュン,カ,何,6_庾亮世代
137,賈荃,カセン,カ,賈,4_西晋後半
138,何曽,カソウ,カ,何,2_三国後半
139,何澄,カチョウ,カ,何,9_東晋末期
140,賈南風,カナンプウ,カ,賈,4_西晋後半
141,賈寧,カネイ,カ,賈,6_庾亮世代
142,賈黎民,カレイミン,カ,賈,4_西晋後半
143,蒯氏（司馬炎）,カイシ,カイ,蒯,3_西晋前半
144,蒯氏（孫秀）,カイシ,カイ,蒯,3_西晋前半
145,華歆,カキン,カキ,華,1_三国前半
146,郭奕,カクエキ,カク,郭,2_三国後半
147,郭槐,カクカイ,カク,郭,2_三国後半
148,郝氏（王湛）,カクシ,カク,郝,3_西晋前半
149,郭氏（王衍）,カクシ,カク,郭,4_西晋後半
150,郭象,カクショウ,カク,郭,3_西晋前半
151,郭泰,カクタイ,カク,郭,I_後漢時代
152,郭配,カクハイ,カク,郭,2_三国後半
153,郭璞,カクハク,カク,郭,5_王導世代
154,郝普,カクフ,カク,郝,3_西晋前半
155,郭予,カクヨ,カク,郭,2_三国後半
156,郝隆,カクリュウ,カク,郝,7_桓温世代
157,郭淮,カクワイ,カク,郭,1_三国前半
158,夏侯玄,カコウゲン,カコウ,夏,2_三国後半
159,夏侯湛,カコウタン,カコウ,夏,3_西晋前半
160,葛彊,カツキョウ,カツ,葛,4_西晋後半
161,葛旟,カツヨ,カツ,葛,4_西晋後半
162,桓伊,カンイ,カン,桓,7_桓温世代
163,桓彝,カンイ,カン,桓,5_王導世代
164,桓歆,カンイン,カン,桓,9_東晋末期
165,桓胤,カンイン,カン,桓,9_東晋末期
166,桓温,カンオン,カン,桓,7_桓温世代
167,韓繪之,カンカイシ,カン,韓,9_東晋末期
168,桓豁,カンカツ,カン,桓,7_桓温世代
169,桓熙,カンキ,カン,桓,9_東晋末期
170,桓謙,カンケン,カン,桓,9_東晋末期
171,桓玄,カンゲン,カン,桓,9_東晋末期
172,漢元帝【劉奭】,カンゲンテイリュウセキ,カン,漢,G_前漢時代
173,漢高帝【劉邦】,カンコウテイリュウホウ,カン,漢,F_秦漢争乱
174,漢光武帝【劉秀】,カンコウブテイ,カン,漢,H_新漢争乱
175,桓嗣,カンシ,カン,桓,9_東晋末期
176,韓氏（山濤）,カンシ,カン,韓,2_三国後半
177,桓脩,カンシュウ,カン,桓,9_東晋末期
178,干将,カンショウ,カン,干,D_春秋時代
179,韓寿,カンジュ,カン,韓,4_西晋後半
180,桓女幼,カンジョヨウ,カン,桓,9_東晋末期
181,漢成帝【劉驁】,カンセイテイリュウゴウ,カン,漢,H_新漢争乱
182,桓石虔,カンセキケン,カン,桓,8_淝水世代
183,桓沖,カンチュウ,カン,桓,7_桓温世代
184,管仲,カンチュウ,カン,管,D_春秋時代
185,桓道恭,カンドウキョウ,カン,桓,9_東晋末期
186,管寧,カンネイ,カン,管,1_三国前半
187,韓伯,カンハク,カン,韓,7_桓温世代
188,桓範,カンハン,カン,桓,2_三国後半
189,漢武帝【劉徹】,カンブテイリュウテツ,カン,漢,G_前漢時代
190,干宝,カンポウ,カン,干,7_桓温世代
191,甘羅,カンラ,カン,甘,F_秦漢争乱
192,管輅,カンラク,カン,管,1_三国前半
193,桓亮,カンリョウ,カン,桓,9_東晋末期
194,賀邵,ガショウ,ガ,賀,3_西晋前半
195,賀循,ガジュン,ガ,賀,4_西晋後半
196,楽毅,ガクキ,ガク,楽,E_戦国時代
197,楽広,ガクコウ,ガク,楽,3_西晋前半
198,顔回,ガンカイ,ガン,顔,D_春秋時代
199,顔氏（王渾）,ガンシ,ガン,顔,3_西晋前半
200,祁奚,キケイ,キ,祁,C_西周時代
201,箕子,キシ,キ,箕,B_殷商時代
202,僖負羈,キフリ,キ,僖,D_春秋時代
203,契,キツ,キツ,契,A_伝説時代
204,繆襲,キュウシュウ,キュウ,繆,2_三国後半
205,許允,キョイン,キョ,許,2_三国後半
206,喬玄,キョウゲン,キョ,喬,I_後漢時代
207,許永,キョエイ,キョ,許,6_庾亮世代
208,許虔,キョケン,キョ,許,I_後漢時代
209,許劭,キョショウ,キョ,許,I_後漢時代
210,許詢,キョジュン,キョ,許,7_桓温世代
211,許璪,キョソウ,キョ,許,5_王導世代
212,許由,キョユウ,キョ,許,A_伝説時代
213,許柳,キョリュウ,キョ,許,5_王導世代
214,匡術,キョウジュツ,キョウ,匡,6_庾亮世代
215,甄氏（曹丕）,キンシ,キン,甄,1_三国前半
216,魏陰,ギイン,ギ,魏,8_淝水世代
217,魏嬰,ギエイ,ギ,魏,E_戦国時代
218,魏顗,ギギ,ギ,魏,7_桓温世代
219,魏舒,ギジョ,ギ,魏,2_三国後半
220,魏逿,ギトウ,ギ,魏,8_淝水世代
221,堯,ギョウ,ギョウ,堯,A_伝説時代
222,九方皋,クホウサイ,クホ,九,D_春秋時代
223,虞球,グキュウ,グ,虞,7_桓温世代
224,虞謇,グケン,グ,虞,6_庾亮世代
225,虞嘯父,グショウフ,グ,虞,9_東晋末期
226,虞存,グソン,グ,虞,6_庾亮世代
227,虞𩦎,グハイ,グ,虞,4_西晋後半
228,嵆喜,ケイキ,ケイ,嵆,3_西晋前半
229,邢喬,ケイキョウ,ケイ,邢,4_西晋後半
230,嵆康,ケイコウ,ケイ,嵆,3_西晋前半
231,恵施,ケイシ,ケイ,恵,D_春秋時代
232,嵇紹,ケイショウ,ケイ,嵇,4_西晋後半
233,京房,ケイボウ,ケイ,京,G_前漢時代
234,厳隠,ゲンイン,ゲン,厳,3_西晋前半
235,阮侃,ゲンカン,ゲン,阮,2_三国後半
236,阮咸,ゲンカン,ゲン,阮,3_西晋前半
237,阮共,ゲンキョウ,ゲン,阮,1_三国前半
238,原憲,ゲンケン,ゲン,原,D_春秋時代
239,阮渾,ゲンコン,ゲン,阮,4_西晋後半
240,阮氏（劉綏）,ゲンシ,ゲン,阮,5_王導世代
241,阮氏（許允）,ゲンシ,ゲン,阮,2_三国後半
242,阮脩,ゲンシュウ,ゲン,阮,5_王導世代
243,阮籍,ゲンセキ,ゲン,阮,2_三国後半
244,阮瞻,ゲンセン,ゲン,阮,5_王導世代
245,阮孚,ゲンフ,ゲン,阮,5_王導世代
246,阮武,ゲンブ,ゲン,阮,4_西晋後半
247,阮裕,ゲンユウ,ゲン,阮,6_庾亮世代
248,胡威,コイ,コ,胡,3_西晋前半
249,顧夷,コイ,コ,顧,7_桓温世代
250,顧栄,コエイ,コ,顧,3_西晋前半
251,顧悅,コエツ,コ,顧,7_桓温世代
252,狐偃,コエン,コ,狐,D_春秋時代
253,顧愷之,コガイシ,コ,顧,8_淝水世代
254,顧顕,コケン,コ,顧,5_王導世代
255,顧劭,コショウ,コ,顧,1_三国前半
256,顧毗,コヒ,コ,顧,5_王導世代
257,顧敷,コフ,コ,顧,8_淝水世代
258,顧辟疆,コヘキキョウ,コ,顧,8_淝水世代
259,顧雍,コヨウ,コ,顧,1_三国前半
260,顧和,コワ,コ,顧,6_庾亮世代
261,孔安国,コウアンコク,コウ,孔,9_東晋末期
262,江灌,コウカン,コウ,江,7_桓温世代
263,江敳,コウガイ,コウ,江,9_東晋末期
264,孝己,コウキ,コウ,孝,B_殷商時代
265,孔羣,コウグン,コウ,孔,6_庾亮世代
266,黄憲,コウケン,コウ,黄,I_後漢時代
267,孔巌,コウゲン,コウ,孔,7_桓温世代
268,孔子,コウシ,コウ,孔,D_春秋時代
269,后稷,コウショク,コウ,后,A_伝説時代
270,孔沈,コウシン,コウ,孔,7_桓温世代
271,高柔,コウジュウ,コウ,高,7_桓温世代
272,孔淳之,コウジュンシ,コウ,孔,9_東晋末期
273,高崧,コウスウ,コウ,高,6_庾亮世代
274,康僧淵,コウソウエン,コウ,康,5_王導世代
275,孔坦,コウタン,コウ,孔,5_王導世代
276,黄帝,コウテイ,コウ,黄,A_伝説時代
277,江惇,コウトン,コウ,江,7_桓温世代
278,江虨,コウヒン,コウ,江,6_庾亮世代
279,皇甫謐,コウホイツ,コウ,皇,2_三国後半
280,孔愉,コウユ,コウ,孔,4_西晋後半
281,孔融,コウユウ,コウ,孔,1_三国前半
282,臯繇（臯陶／庭堅）,コウヨウ,コウ,臯,A_伝説時代
283,公孫度,コウソンタク,コウソン,公孫,1_三国前半
284,胡毋氏（高柔）,コムシ,コム,胡毋,7_桓温世代
285,胡毋甫之,コムホシ,コム,胡毋,5_王導世代
286,呉隠之,ゴインシ,ゴ,呉,9_東晋末期
287,呉坦之,ゴタンシ,ゴ,呉,9_東晋末期
288,呉展,ゴテン,ゴ,呉,3_西晋前半
289,左思,サシ,サ,左,4_西晋後半
290,崔琰,サイエン,サイ,崔,1_三国前半
291,蔡系,サイケイ,サイ,蔡,7_桓温世代
292,蔡洪,サイコウ,サイ,蔡,3_西晋前半
293,蔡克,サイコク,サイ,蔡,4_西晋後半
294,済尼,サイジ,サイ,済,9_東晋末期
295,崔杼,サイチョ,サイ,崔,D_春秋時代
296,崔豹,サイヒョウ,サイ,崔,4_西晋後半
297,蔡謨,サイモ,サイ,蔡,5_王導世代
298,蔡邕,サイヨウ,サイ,蔡,I_後漢時代
299,崔烈,サイレツ,サイ,崔,I_後漢時代
300,索元,サクゲン,サク,索,9_東晋末期
301,山遐,サンカ,サン,山,5_王導世代
302,山簡,サンカン,サン,山,4_西晋後半
303,山允,サンジュウ,サン,山,4_西晋後半
304,山濤,サントウ,サン,山,2_三国後半
305,四凶,シキョウ,シ,四,A_伝説時代
306,摯虞,シグ,シ,摯,4_西晋後半
307,子貢,シコウ,シ,子,D_春秋時代
308,摯瞻,シセン,シ,摯,5_王導世代
309,支遁,シトン,シ,支,7_桓温世代
310,子路,シロ,シ,子,D_春秋時代
311,司馬懿【宣帝】,シバイ,シバ,司馬,1_三国前半
312,司馬昱【簡文帝】,シバイク,シバ,司馬,7_桓温世代
313,司馬遹,シバイツ,シバ,司馬,5_王導世代
314,司馬睿【元帝】,シバエイ,シバ,司馬,5_王導世代
315,司馬穎,シバエイ,シバ,司馬,4_西晋後半
316,司馬奕【廃帝】,シバエキ,シバ,司馬,8_淝水世代
317,司馬越,シバエツ,シバ,司馬,3_西晋前半
318,司馬炎【武帝】,シバエン,シバ,司馬,3_西晋前半
319,司馬衍【成帝】,シバエン,シバ,司馬,7_桓温世代
320,司馬乂,シバガイ,シバ,司馬,4_西晋後半
321,司馬徽,シバキ,シバ,司馬,1_三国前半
322,司馬晞,シバキ,シバ,司馬,7_桓温世代
323,司馬冏,シバケイ,シバ,司馬,4_西晋後半
324,司馬権,シバケン,シバ,司馬,4_西晋後半
325,司馬興男,シバコウナン,シバ,司馬,7_桓温世代
326,司馬師【景帝】,シバシ,シバ,司馬,2_三国後半
327,司馬駿,シバシュン,シバ,司馬,3_西晋前半
328,司馬承,シバショウ,シバ,司馬,4_西晋後半
329,司馬昭【文帝】,シバショウ,シバ,司馬,2_三国後半
330,司馬紹【明帝】,シバショウ,シバ,司馬,6_庾亮世代
331,司馬相如,シバショウジョ,シバ,司馬,G_前漢時代
332,司馬衷【恵帝】,シバチュウ,シバ,司馬,4_西晋後半
333,司馬珍之,シバチンシ,シバ,司馬,9_東晋末期
334,司馬彤,シバトウ,シバ,司馬,4_西晋後半
335,司馬徳文,シバトクブン,シバ,司馬,9_東晋末期
336,司馬道子,シバドウシ,シバ,司馬,9_東晋末期
337,司馬道福,シバドウフク,シバ,司馬,8_淝水世代
338,司馬南弟,シバナンテイ,シバ,司馬,7_桓温世代
339,司馬毗,シバヒ,シバ,司馬,4_西晋後半
340,司馬無忌,シバムキ,シバ,司馬,5_王導世代
341,司馬攸,シバユウ,シバ,司馬,3_西晋前半
342,司馬曜【孝武帝】,シバヨウ,シバ,司馬,9_東晋末期
343,司馬倫,シバリン,シバ,司馬,3_西晋前半
344,謝安,シャアン,シャ,謝,7_桓温世代
345,車胤,シャイン,シャ,車,8_淝水世代
346,謝奕,シャエキ,シャ,謝,7_桓温世代
347,謝淵,シャエン,シャ,謝,8_淝水世代
348,謝琰,シャエン,シャ,謝,8_淝水世代
349,謝拠,シャキョ,シャ,謝,7_桓温世代
350,謝甄,シャケン,シャ,謝,I_後漢時代
351,謝玄,シャゲン,シャ,謝,8_淝水世代
352,謝混,シャコン,シャ,謝,9_東晋末期
353,謝鯤,シャコン,シャ,謝,5_王導世代
354,謝尚,シャショウ,シャ,謝,6_庾亮世代
355,謝韶,シャショウ,シャ,謝,8_淝水世代
356,謝石,シャセキ,シャ,謝,7_桓温世代
357,謝重,シャチョウ,シャ,謝,9_東晋末期
358,謝道蘊,シャドウウン,シャ,謝,8_淝水世代
359,謝敷,シャフ,シャ,謝,8_淝水世代
360,謝聘,シャヘイ,シャ,謝,7_桓温世代
361,謝奉,シャホウ,シャ,謝,7_桓温世代
362,謝裒,シャホウ,シャ,謝,5_王導世代
363,謝万,シャマン,シャ,謝,7_桓温世代
364,謝霊運,シャレイウン,シャ,謝,9_東晋末期
365,謝朗,シャロウ,シャ,謝,8_淝水世代
366,釈道安,シャクドウアン,シャク,釈,7_桓温世代
367,朱誕,シュタン,シュ,朱,3_西晋前半
368,朱博,シュハク,シュ,朱,G_前漢時代
369,朱辟,シュヘキ,シュ,朱,8_淝水世代
370,周恢,シュウカイ,シュウ,周,4_西晋後半
371,周顗,シュウギ,シュウ,周,5_王導世代
372,周公旦【姫旦】,シュウコウタンキタン,シュウ,周,C_西周時代
373,習鑿齒,シュウサクシ,シュウ,習,7_桓温世代
374,周浚,シュウシュン,シュウ,周,4_西晋後半
375,周處,シュウショ,シュウ,周,3_西晋前半
376,周邵,シュウショウ,シュウ,周,6_庾亮世代
377,周乗,シュウジョウ,シュウ,周,I_後漢時代
378,周崇,シュウスウ,シュウ,周,5_王導世代
379,周鎮,シュウチン,シュウ,周,5_王導世代
380,周馬頭,シュウバトウ,シュウ,周,8_淝水世代
381,周馥,シュウフク,シュウ,周,4_西晋後半
382,周武王【姫発】,シュウブオウキハツ,シュウ,周,C_西周時代
383,周文王【姫昌】,シュウブンオウキショウ,シュウ,周,C_西周時代
384,周謨,シュウモ,シュウ,周,5_王導世代
385,周幽王【姫宮涅】,シュウユウオウキキュウハン,シュウ,周,C_西周時代
386,周翼,シュウヨク,シュウ,周,6_庾亮世代
387,周琳,シュウリン,シュウ,周,8_淝水世代
388,周厲王【姫胡】,シュウレイオウキコ,シュウ,周,C_西周時代
389,叔斉,シュクセイ,シュク,叔,B_殷商時代
390,舜,シュン,シュン,舜,A_伝説時代
391,鍾子期,ショウシキ,ショ,鍾,D_春秋時代
392,匠石,ショウセキ,ショ,匠,C_西周時代
393,鍾毓,ショウイク,ショウ,鍾,3_西晋前半
394,鍾琰,ショウエン,ショウ,鍾,3_西晋前半
395,鍾会,ショウカイ,ショウ,鍾,3_西晋前半
396,鍾雅,ショウガ,ショウ,鍾,5_王導世代
397,鍾皓,ショウコウ,ショウ,鍾,I_後漢時代
398,向秀,ショウシュウ,ショウ,向,2_三国後半
399,向純,ショウジュン,ショウ,向,4_西晋後半
400,向悌,ショウテイ,ショウ,向,4_西晋後半
401,向雄,ショウユウ,ショウ,向,3_西晋前半
402,商容,ショウヨウ,ショウ,商,C_西周時代
403,鍾繇,ショウヨウ,ショウ,鍾,1_三国前半
404,蕭輪,ショウリン,ショウ,蕭,5_王導世代
405,商丘子胥,ショウキュウシショ,ショウキュウ,商丘,G_前漢時代
406,鍾離春,ショウリシュン,ショウリ,鍾離,E_戦国時代
407,諸葛恢,ショカツカイ,ショカツ,諸葛,5_王導世代
408,諸葛恪,ショカツカク,ショカツ,諸葛,2_三国後半
409,諸葛瑾,ショカツキン,ショカツ,諸葛,1_三国前半
410,諸葛宏,ショカツコウ,ショカツ,諸葛,4_西晋後半
411,諸葛衡,ショカツコウ,ショカツ,諸葛,8_淝水世代
412,諸葛氏（司馬炎叔母）,ショカツシ,ショカツ,諸葛,3_西晋前半
413,諸葛氏（王広）,ショカツシ,ショカツ,諸,2_三国後半
414,諸葛靚,ショカツセン,ショカツ,諸葛,3_西晋前半
415,諸葛誕,ショカツタン,ショカツ,諸葛,2_三国後半
416,諸葛文彪,ショカツブンヒョウ,ショカツ,諸葛,8_淝水世代
417,諸葛亮,ショカツリョウ,ショカツ,諸葛,1_三国前半
418,尸黎蜜多羅,シリミッタラ,シリ,尸,4_西晋後半
419,沈充,シンジュウ,シン,沈,5_王導世代
420,秦生,シンセイ,シン,秦,3_西晋前半
421,辛毗,シンピ,シン,辛,1_三国前半
422,晋文公【姫重耳】,シンブンコウキチョウジ,シン,晋,D_春秋時代
423,竺法深,ジクホウシン,ジク,竺,5_王導世代
424,竺法汰,ジクホッタ,ジク,竺,7_桓温世代
425,豎刁,ジュチョウ,ジュ,豎,D_春秋時代
426,荀彧,ジュンイク,ジュン,荀,1_三国前半
427,荀陰,ジュンイン,ジュン,荀,3_西晋前半
428,荀勖,ジュンキョク,ジュン,荀,2_三国後半
429,荀巨伯,ジュンキョハク,ジュン,荀,I_後漢時代
430,荀顗,ジュンギ,ジュン,荀,2_三国後半
431,荀㝢,ジュングウ,ジュン,荀,3_西晋前半
432,荀粲,ジュンサン,ジュン,荀,2_三国後半
433,荀淑,ジュンシュク,ジュン,荀,I_後漢時代
434,荀靖,ジュンセイ,ジュン,荀,I_後漢時代
435,荀羨,ジュンセン,ジュン,荀,7_桓温世代
436,荀爽,ジュンソウ,ジュン,荀,I_後漢時代
437,徐稚,ジョチ,ジョ,徐,I_後漢時代
438,徐寧,ジョネイ,ジョ,徐,6_庾亮世代
439,任愷,ジンガイ,ジン,任,3_西晋前半
440,任譲,ジンジョウ,ジン,任,5_王導世代
441,任瞻,ジンセン,ジン,任,5_王導世代
442,神農,ジンノウ,ジン,神,A_伝説時代
443,鄒湛,スウジン,スウ,鄒,3_西晋前半
444,斉桓公【姜小白】,セイカンコウキョウショウハク,セイ,斉,D_春秋時代
445,斉景公【姜杵臼】,セイケイコウキョウキョキュウ,セイ,斉,D_春秋時代
446,西施,セイシ,セイ,西,D_春秋時代
447,井丹,セイタン,セイ,井,I_後漢時代
448,石虎,セキコ,セキ,石,6_庾亮世代
449,石崇,セキスウ,セキ,石,4_西晋後半
450,石勒,セキロク,セキ,石,5_王導世代
451,全琮,ゼンソウ,ゼン,全,2_三国後半
452,祖廣,ソコウ,ソ,祖,9_東晋末期
453,蘇峻,ソシュン,ソ,蘇,5_王導世代
454,蘇紹,ソショウ,ソ,蘇,4_西晋後半
455,蘇則,ソソク,ソ,蘇,1_三国前半
456,祖逖,ソテキ,ソ,祖,4_西晋後半
457,祖訥,ソトツ,ソ,祖,4_西晋後半
458,祖約,ソヤク,ソ,祖,5_王導世代
459,蘇愉,ソユ,ソ,蘇,2_三国後半
460,僧意,ソウイ,ソウ,僧,7_桓温世代
461,宋褘,ソウイ,ソウ,宋,5_王導世代
462,曹叡【魏明帝】,ソウエイ,ソウ,曹,2_三国後半
463,曹公,ソウコウ,ソウ,曹,D_春秋時代
464,曾参,ソウサン,ソウ,曾,D_春秋時代
465,曹氏（荀粲）,ソウシ,ソウ,曹,2_三国後半
466,宗承,ソウショウ,ソウ,宗,1_三国前半
467,曹彰,ソウショウ,ソウ,曹,1_三国前半
468,曹植,ソウショク,ソウ,曹,1_三国前半
469,荘子,ソウジ,ソウ,荘,D_春秋時代
470,曹操【魏武帝】,ソウソウ,ソウ,曹,1_三国前半
471,曹丕【魏文帝】,ソウヒ,ソウ,曹,1_三国前半
472,曹毗,ソウヒ,ソウ,曹,7_桓温世代
473,巣父,ソウホ,ソウ,巣,A_伝説時代
474,曹髦【魏高貴郷公】,ソウボウ,ソウ,曹,2_三国後半
475,曹茂之,ソウモシ,ソウ,曹,7_桓温世代
476,僧伽提婆,ソウギャダイバ,ソウギャ,僧伽,6_庾亮世代
477,束皙,ソクセキ,ソク,束,4_西晋後半
478,孫阿恒,ソンアコウ,ソン,孫,9_東晋末期
479,孫恩,ソンオン,ソン,孫,9_東晋末期
480,孫休【呉景帝】,ソンキュウ,ソン,孫,3_西晋前半
481,孫権【呉大帝】,ソンケン,ソン,孫,1_三国前半
482,孫皓【呉末帝】,ソンコウ,ソン,孫,3_西晋前半
483,孫策【呉桓王】,ソンサク,ソン,孫,1_三国前半
484,孫綽,ソンシャク,ソン,孫,7_桓温世代
485,孫秀,ソンシュウ,ソン,孫,4_西晋後半
486,孫秀（呉郡）,ソンシュウ,ソン,孫,3_西晋前半
487,孫盛,ソンセイ,ソン,孫,6_庾亮世代
488,孫潜,ソンセン,ソン,孫,8_淝水世代
489,孫楚,ソンソ,ソン,孫,4_西晋後半
490,孫登,ソントウ,ソン,孫,3_西晋前半
491,孫統,ソントウ,ソン,孫,5_王導世代
492,孫騰,ソントウ,ソン,孫,9_東晋末期
493,孫放,ソンホウ,ソン,孫,8_淝水世代
494,戴淵,タイエン,タイ,戴,4_西晋後半
495,戴逵,タイキ,タイ,戴,8_淝水世代
496,戴逯,タイロク,タイ,戴,8_淝水世代
497,太叔廣,タイシュクコウ,タイシュク,太叔,4_西晋後半
498,湛氏（陶侃母）,タンシ,タン,湛,3_西晋前半
499,丹朱,タンシュ,タン,丹,A_伝説時代
500,郗愔,チイン,チ,郗,7_桓温世代
501,郗恢,チカイ,チ,郗,9_東晋末期
502,郗鑒,チカン,チ,郗,5_王導世代
503,郗氏(王羲之),チシ,チ,郗,7_桓温世代
504,郗超,チチョウ,チ,郗,7_桓温世代
505,郗道茂,チドウモ,チ,郗,8_淝水世代
506,郗曇,チドン,チ,郗,7_桓温世代
507,郗邁,チマイ,チ,郗,6_庾亮世代
508,郗融,チユウ,チ,郗,7_桓温世代
509,郗隆,チリュウ,チ,郗,4_西晋後半
510,刁協,チョウキョウ,チョ,刁,5_王導世代
511,褚爽,チョソウ,チョ,褚,8_淝水世代
512,褚陶,チョトウ,チョ,褚,3_西晋前半
513,褚裒,チョボウ,チョ,褚,6_庾亮世代
514,趙悦,チョウエツ,チョウ,趙,8_淝水世代
515,張華,チョウカ,チョウ,張,3_西晋前半
516,張翰,チョウカン,チョウ,張,5_王導世代
517,張闓,チョウガイ,チョウ,張,5_王導世代
518,張玄,チョウゲン,チョウ,張,8_淝水世代
519,張衡,チョウコウ,チョウ,張,I_後漢時代
520,張氏（張玄妹）,チョウシ,チョウ,張,9_東晋末期
521,趙氏（虞韙）,チョウシ,チョウ,趙,1_三国前半
522,趙至,チョウシ,チョウ,趙,3_西晋前半
523,張昭,チョウショウ,チョウ,張,1_三国前半
524,趙衰,チョウスイ,チョウ,趙,D_春秋時代
525,張湛,チョウタン,チョウ,張,7_桓温世代
526,張鴫,チョウチョウ,チョウ,張,3_西晋前半
527,張鎮,チョウチン,チョウ,張,5_王導世代
528,張天錫,チョウテンシャク,チョウ,張,8_淝水世代
529,趙飛燕,チョウヒエン,チョウ,趙,G_前漢時代
530,張憑,チョウヒョウ,チョウ,張,6_庾亮世代
531,趙穆,チョウボク,チョウ,趙,4_西晋後半
532,刁約,チョウヤク,チョウ,刁,8_淝水世代
533,張良,チョウリョウ,チョウ,張,F_秦漢争乱
534,陳遺,チンイ,チン,陳,9_東晋末期
535,陳韙,チンイ,チン,陳,I_後漢時代
536,陳嬰,チンエイ,チン,陳,F_秦漢争乱
537,陳紀,チンキ,チン,陳,I_後漢時代
538,陳逵,チンキ,チン,陳,7_桓温世代
539,陳羣,チングン,チン,陳,1_三国前半
540,陳騫,チンケン,チン,陳,2_三国後半
541,陳恆,チンコウ,チン,陳,D_春秋時代
542,陳寔,チンショク,チン,陳,I_後漢時代
543,陳諶,チンシン,チン,陳,I_後漢時代
544,陳寿,チンジュ,チン,陳,3_西晋前半
545,陳述,チンジュツ,チン,陳,5_王導世代
546,陳泰,チンタイ,チン,陳,2_三国後半
547,陳忠,チンチュウ,チン,陳,I_後漢時代
548,陳仲子,チンチュウシ,チン,陳,C_西周時代
549,陳蕃,チンバン,チン,陳,I_後漢時代
550,陳平,チンペイ,チン,陳,F_秦漢争乱
551,陳本,チンホン,チン,陳,2_三国後半
552,鄭詡,テイク,テイ,鄭,3_西晋前半
553,鄭玄,テイゲン,テイ,鄭,I_後漢時代
554,丁潭,テイコン,テイ,丁,4_西晋後半
555,鄭沖,テイチュウ,テイ,鄭,2_三国後半
556,翟湯,テキトウ,テキ,翟,6_庾亮世代
557,禰衡,デイコウ,デイ,禰,1_三国前半
558,田横,デンオウ,デン,田,F_秦漢争乱
559,杜育,トイク,ト,杜,4_西晋後半
560,杜乂,トガイ,ト,杜,5_王導世代
561,杜弢,トトウ,ト,杜,5_王導世代
562,鄧迦,トウカ,トウ,鄧,7_桓温世代
563,陶侃,トウカン,トウ,陶,4_西晋後半
564,董艾,トウガイ,トウ,董,4_西晋後半
565,鄧艾,トウガイ,トウ,鄧,2_三国後半
566,董狐,トウコ,トウ,董,D_春秋時代
567,鬥生,トウセイ,トウ,鬥,D_春秋時代
568,董仲舒,トウチュウジョ,トウ,董,G_前漢時代
569,鄧颺,トウチョウ,トウ,鄧,2_三国後半
570,陶範,トウハン,トウ,陶,5_王導世代
571,鄧攸,トウユウ,トウ,鄧,4_西晋後半
572,董養,トウヨウ,トウ,董,4_西晋後半
573,東方朔,トウホウサク,トウホウ,東方,G_前漢時代
574,杜預,ドヨ,ド,杜,3_西晋前半
575,道曜,ドウヨウ,ドウ,道,9_東晋末期
576,道壹道人,ドウイツドウジン,ドウイツ,道壹,6_庾亮世代
577,寧越,ネイエツ,ネイ,寧,D_春秋時代
578,裴遐,ハイカ,ハイ,裴,3_西晋前半
579,裴楷,ハイカイ,ハイ,裴,3_西晋前半
580,裴徽,ハイキ,ハイ,裴,2_三国後半
581,裴頠,ハイギ,ハイ,裴,4_西晋後半
582,裴啓,ハイケイ,ハイ,裴,7_桓温世代
583,裴康,ハイコウ,ハイ,裴,3_西晋前半
584,裴瓚,ハイサン,ハイ,裴,3_西晋前半
585,裴綽,ハイシャク,ハイ,裴,3_西晋前半
586,裴秀,ハイシュウ,ハイ,裴,2_三国後半
587,裴潛,ハイセン,ハイ,裴,1_三国前半
588,裴邈,ハイバク,ハイ,裴,4_西晋後半
589,伯夷,ハクイ,ハク,伯,B_殷商時代
590,伯牙,ハクガ,ハク,伯,D_春秋時代
591,伯奇,ハクキ,ハク,伯,C_西周時代
592,白起,ハクキ,ハク,白,E_戦国時代
593,伯成,ハクセイ,ハク,伯,A_伝説時代
594,范汪,ハンオウ,ハン,范,6_庾亮世代
595,潘岳,ハンガク,ハン,潘,3_西晋前半
596,范逵,ハンキ,ハン,范,4_西晋後半
597,范啓,ハンケイ,ハン,范,7_桓温世代
598,班固,ハンコ,ハン,班,I_後漢時代
599,班氏（漢成帝）,ハンシ,ハン,班,G_前漢時代
600,樊子昭,ハンシショウ,ハン,樊,1_三国前半
601,潘尼,ハンジ,ハン,潘,4_西晋後半
602,范宣,ハンセン,ハン,范,7_桓温世代
603,潘滔,ハントウ,ハン,藩,4_西晋後半
604,范寧,ハンネイ,ハン,范,9_東晋末期
605,班彪,ハンピョウ,ハン,班,H_新漢争乱
606,范滂,ハンボウ,ハン,范,I_後漢時代
607,馬援,バエン,バ,馬,H_新漢争乱
608,馬融,バユウ,バ,馬,I_後漢時代
609,梅陶,バイトウ,バイ,梅,5_王導世代
610,比干,ヒカン,ヒ,比,B_殷商時代
611,畢卓,ヒツタク,ヒツ,畢,5_王導世代
612,百里奚,ヒャクリケイ,ヒャクリ,百里,D_春秋時代
613,閔子騫,ビンシケン,ビン,閔,D_春秋時代
614,愍度道人,ビンドドウジン,ビンド,愍度,6_庾亮世代
615,傅説,フエツ,フ,傅,B_殷商時代
616,傅瑗,フエン,フ,傅,8_淝水世代
617,傅嘏,フカ,フ,傅,2_三国後半
618,符起,フキ,フ,符,G_前漢時代
619,傅瓊,フケイ,フ,傅,8_淝水世代
620,苻堅,フケン,フ,苻,7_桓温世代
621,苻宏,フコウ,フ,苻,9_東晋末期
622,傅迪,フチュウ,フ,傅,9_東晋末期
623,傅亮,フリョウ,フ,傅,9_東晋末期
624,苻朗,フロウ,フ,苻,8_淝水世代
625,馮懐,フウカイ,フウ,馮,7_桓温世代
626,馮蓀,フウソン,フウ,馮,4_西晋後半
627,馮播,フウハン,フウ,馮,3_西晋前半
628,伏系,フクケイ,フク,伏,9_東晋末期
629,服虔,フクケン,フク,服,I_後漢時代
630,伏滔,フクトウ,フク,伏,7_桓温世代
631,武陔,ブガイ,ブ,武,2_三国後半
632,武周,ブシュウ,ブ,武,1_三国前半
633,仏図澄,ブットチョウ,ブッ,仏,3_西晋前半
634,邴原,ヘイゲン,ヘイ,邴,1_三国前半
635,辺譲,ヘンジョウ,ヘン,辺,I_後漢時代
636,卞壼,ベンコン,ベン,卞,5_王導世代
637,卞氏（曹操）,ベンシ,ベン,卞,1_三国前半
638,卞範之,ベンハンシ,ベン,卞,9_東晋末期
639,法威,ホウイ,ホウ,法,8_淝水世代
640,法岡道人,ホウガンドウジン,ホウ,法,7_桓温世代
641,龐統,ホウトウ,ホウ,龐,1_三国前半
642,法虔,ホッケン,ホッ,法,7_桓温世代
643,満奮,マンフン,マン,満,3_西晋前半
644,務光,ムコウ,ム,務,B_殷商時代
645,孟嘉,モウカ,モウ,孟,7_桓温世代
646,毛玄,モウゲン,モウ,毛,7_桓温世代
647,毛曾,モウソウ,モウ,毛,2_三国後半
648,孟昶,モウチョウ,モウ,孟,9_東晋末期
649,孟陋,モウロウ,モウ,孟,7_桓温世代
650,庾爰之,ユエンシ,ユ,庾,8_淝水世代
651,庾鴻,ユオウ,ユ,庾,9_東晋末期
652,庾会,ユカイ,ユ,庾,7_桓温世代
653,庾敳,ユガイ,ユ,庾,4_西晋後半
654,庾希,ユキ,ユ,庾,8_淝水世代
655,庾羲,ユギ,ユ,庾,8_淝水世代
656,庾恆,ユコウ,ユ,庾,9_東晋末期
657,庾倩,ユセイ,ユ,庾,8_淝水世代
658,庾宣,ユセン,ユ,庾,9_東晋末期
659,庾闡,ユセン,ユ,庾,5_王導世代
660,庾琮,ユソウ,ユ,庾,4_西晋後半
661,庾統,ユトウ,ユ,庾,6_庾亮世代
662,庾冰,ユヒョウ,ユ,庾,6_庾亮世代
663,庾法暢,ユホウチョウ,ユ,庾,5_王導世代
664,庾友,ユユウ,ユ,庾,7_桓温世代
665,庾姚,ユヨウ,ユ,庾,8_淝水世代
666,庾翼,ユヨク,ユ,庾,6_庾亮世代
667,庾亮,ユリョウ,ユ,庾,6_庾亮世代
668,庾和,ユワ,ユ,庾,7_桓温世代
669,予譲,ヨジョウ,ヨ,予,D_春秋時代
670,羊楷,ヨウカイ,ヨウ,羊,7_桓温世代
671,羊給,ヨウキュウ,ヨウ,羊,4_西晋後半
672,楊喬,ヨウキョウ,ヨウ,楊,5_王導世代
673,羊欣,ヨウキン,ヨウ,羊,9_東晋末期
674,羊権,ヨウケン,ヨウ,羊,4_西晋後半
675,羊固,ヨウコ,ヨウ,羊,5_王導世代
676,羊祜,ヨウコ,ヨウ,羊,3_西晋前半
677,楊廣,ヨウコウ,ヨウ,楊,9_東晋末期
678,楊済,ヨウサイ,ヨウ,楊,3_西晋前半
679,楊脩,ヨウシュウ,ヨウ,楊,1_三国前半
680,羊琇,ヨウシュウ,ヨウ,羊,3_西晋前半
681,羊式,ヨウショク,ヨウ,羊,4_西晋後半
682,羊忱,ヨウシン,ヨウ,羊,5_王導世代
683,羊綏,ヨウスイ,ヨウ,羊,7_桓温世代
684,羊舌肸,ヨウゼツキツ,ヨウ,羊,D_春秋時代
685,羊啅,ヨウタク,ヨウ,羊,4_西晋後半
686,羊孚,ヨウフ,ヨウ,羊,9_東晋末期
687,羊秉,ヨウヘイ,ヨウ,羊,5_王導世代
688,羊輔,ヨウホ,ヨウ,羊,9_東晋末期
689,楊髦,ヨウボウ,ヨウ,楊,5_王導世代
690,羊曼,ヨウマン,ヨウ,羊,5_王導世代
691,羊繇,ヨウヨウ,ヨウ,羊,5_王導世代
692,羊亮,ヨウリョウ,ヨウ,羊,4_西晋後半
693,楊朗,ヨウロウ,ヨウ,楊,5_王導世代
694,楊淮,ヨウワイ,ヨウ,楊,4_西晋後半
695,羅企生,ラキショウ,ラ,羅,9_東晋末期
696,羅含,ラゴン,ラ,羅,7_桓温世代
697,羅友,ラユウ,ラ,羅,7_桓温世代
698,雷氏（王導）,ライシ,ライ,雷,6_庾亮世代
699,李胤,リイン,リ,李,4_西晋後半
700,李熹,リキ,リ,李,1_三国前半
701,李廞,リキン,リ,李,6_庾亮世代
702,李志,リシ,リ,李,7_桓温世代
703,李氏（桓温）,リシ,リ,李,8_淝水世代
704,李氏（賈充）,リシ,リ,李,2_三国後半
705,李充,リジュウ,リ,李,6_庾亮世代
706,李重,リジュウ,リ,李,4_西晋後半
707,李順,リジュン,リ,李,4_西晋後半
708,李勢,リセイ,リ,李,7_桓温世代
709,李豊,リホウ,リ,李,1_三国前半
710,李膺,リヨウ,リ,李,I_後漢時代
711,李陽,リヨウ,リ,李,4_西晋後半
712,李絡秀,リラクシュウ,リ,李,3_西晋前半
713,陸雲,リクウン,リク,陸,4_西晋後半
714,陸凱,リクガイ,リク,陸,2_三国後半
715,陸玩,リクガン,リク,陸,5_王導世代
716,陸機,リクキ,リク,陸,4_西晋後半
717,陸抗,リクコウ,リク,陸,3_西晋前半
718,陸績,リクセキ,リク,陸,1_三国前半
719,陸遜,リクソン,リク,陸,1_三国前半
720,陸退,リクタイ,リク,陸,7_桓温世代
721,陸邁,リクマイ,リク,陸,5_王導世代
722,陸亮,リクリョウ,リク,陸,4_西晋後半
723,劉爰之,リュウエンシ,リュウ,劉,7_桓温世代
724,劉簡,リュウカン,リュウ,劉,7_桓温世代
725,劉簡之,リュウカンシ,リュウ,劉,9_東晋末期
726,劉毅（西）,リュウキ,リュウ,劉,3_西晋前半
727,劉許,リュウキョ,リュウ,劉,3_西晋前半
728,劉向,リュウキョウ,リュウ,劉,G_前漢時代
729,劉瑾,リュウキン,リュウ,劉,9_東晋末期
730,劉宏,リュウコウ,リュウ,劉,4_西晋後半
731,劉琨,リュウコン,リュウ,劉,5_王導世代
732,劉氏（庾翼）,リュウシ,リュウ,劉,6_庾亮世代
733,劉氏（謝安）,リュウシ,リュウ,劉,7_桓温世代
734,劉劭,リュウショウ,リュウ,劉,4_西晋後半
735,劉粹（西）,リュウスイ,リュウ,劉,4_西晋後半
736,劉綏,リュウスイ,リュウ,劉,6_庾亮世代
737,劉奭（東晋）,リュウセキ,リュウ,劉,7_桓温世代
738,劉聡,リュウソウ,リュウ,劉,5_王導世代
739,劉惔,リュウタン,リュウ,劉,7_桓温世代
740,劉疇,リュウチュウ,リュウ,劉,5_王導世代
741,劉昶,リュウチョウ,リュウ,劉,3_西晋前半
742,劉肇,リュウチョウ,リュウ,劉,3_西晋前半
743,劉超,リュウチョウ,リュウ,劉,5_王導世代
744,劉楨,リュウテイ,リュウ,劉,1_三国前半
745,劉納,リュウトウ,リュウ,劉,4_西晋後半
746,劉漠,リュウバク,リュウ,劉,4_西晋後半
747,劉表,リュウヒョウ,リュウ,劉,1_三国前半
748,劉備【蜀昭烈帝】,リュウビ,リュウ,劉,1_三国前半
749,劉宝,リュウホウ,リュウ,劉,3_西晋前半
750,劉裕【劉宋武帝】,リュウユウ,リュウ,劉,9_東晋末期
751,劉輿,リュウヨ,リュウ,劉,4_西晋後半
752,劉繇,リュウヨウ,リュウ,劉,1_三国前半
753,劉驎之,リュウリンシ,リュウ,劉,9_東晋末期
754,劉伶,リュウレイ,リュウ,劉,3_西晋前半
755,劉牢之,リュウロウシ,リュウ,劉,9_東晋末期
756,劉淮,リュウワイ,リュウ,劉,3_西晋前半
757,呂安,リョアン,リョ,呂,3_西晋前半
758,呂不韋,リョフイ,リョ,呂,F_秦漢争乱
759,閭丘沖,リョキュウチュウ,リョキュウ,閭丘,4_西晋後半
760,綠珠,リョクジュ,リョク,綠,4_西晋後半
761,藺相如,リンショウジョ,リン,藺,E_戦国時代
762,酈食其,レキイキ,レキ,酈,F_秦漢争乱
763,廉頗,レンパ,レン,廉,E_戦国時代
764,盧毓,ロイク,ロ,盧,1_三国前半
765,盧志,ロシ,ロ,盧,4_西晋後半
766,盧珽,ロテイ,ロ,盧,2_三国後半
767,樓護,ロウゴ,ロウ,樓,H_新漢争乱
768,老子,ロウシ,ロウ,老,D_春秋時代
769,和嶠,ワキョウ,ワ,和,3_西晋前半
